USA Retail Trade
…
## Parsed with column specification:
## cols(
##   Period = col_character(),
##   Value = col_double()
## )

#view(data)
names(data)[names(data) == "Value"] <- 'Retail sales'
data$`Retail sales` <- data$'Retail sales'/1000
data$Period <- as.Date(data$Period, format = "%d/%m/%Y")
data <- na.omit(data)
show(data)

## # A tibble: 340 x 2
##    Period     `Retail sales`
##    <date>              <dbl>
##  1 1992-01-01           146.
##  2 1992-02-01           147.
##  3 1992-03-01           159.
##  4 1992-04-01           164.
##  5 1992-05-01           170.
##  6 1992-06-01           169.
##  7 1992-07-01           170.
##  8 1992-08-01           170.
##  9 1992-09-01           165.
## 10 1992-10-01           174.
## #  with 330 more rows
data_ad <- read_csv("Dataset/SeriesReport-Seasonally Adjusted Sales - Monthly (Millions of Dollars).csv")

## Parsed with column specification:
## cols(
##   Period = col_character(),
##   Value = col_double()
## )

names(data_ad)[names(data_ad) == "Value"] <- 'Retail sales ad'
data_ad$`Retail sales ad` = data_ad$`Retail sales ad`/1000
data_ad$Period=as.Date(data_ad$Period, format = "%d/%m/%Y")
data_ad <- na.omit(data_ad)
show(data_ad)

## # A tibble: 340 x 2
##    Period     `Retail sales ad`
##    <date>                 <dbl>
##  1 1992-01-01              164.
##  2 1992-02-01              164.
##  3 1992-03-01              164.
##  4 1992-04-01              165.
##  5 1992-05-01              166.
##  6 1992-06-01              166.
##  7 1992-07-01              167.
##  8 1992-08-01              168.
##  9 1992-09-01              169.
## 10 1992-10-01              171.
## #  with 330 more rows
…
These two charts show retail sales without seasonal adjustments and seasonally adjusted, respectively.

summary(data$`Retail sales`)

##    Min. 1st Qu.  Median    Mean 3rd Qu.    Max. 
##   146.4   249.9   335.9   334.3   414.3   591.4

summary(data_ad$`Retail sales ad`)

##    Min. 1st Qu.  Median    Mean 3rd Qu.    Max. 
##   163.7   248.9   340.2   334.5   412.7   529.6

show(data)

## # A tibble: 340 x 2
##    Period     `Retail sales`
##    <date>              <dbl>
##  1 1992-01-01           146.
##  2 1992-02-01           147.
##  3 1992-03-01           159.
##  4 1992-04-01           164.
##  5 1992-05-01           170.
##  6 1992-06-01           169.
##  7 1992-07-01           170.
##  8 1992-08-01           170.
##  9 1992-09-01           165.
## 10 1992-10-01           174.
## #  with 330 more rows
…
